LAMMPS data file via write_data, version 17 Apr 2024, timestep = 0, units = lj

6 atoms
1 atom types

0 1.0873618812400903 xlo xhi
0 1.883366024521512 ylo yhi
0 2.6634817747910216 zlo zhi
1.0873618812400905 1.631042821860135 0.9416830122607556 xy xz yz

Masses

1 1

Atoms # atomic

1 1 0 0 0 0 0 0
3 1 1.6310428218601347 0.313894337420252 0.8878272582636738 -1 0 0
5 1 2.1747237624801796 0.627788674840504 1.7756545165273476 -1 0 0
2 1 0.5436809406200452 0.941683012260756 0 0 0 0
4 1 1.0873618812400903 1.2555773496810079 0.8878272582636738 0 0 0
6 1 2.7184047031002248 1.5694716871012597 1.7756545165273476 -1 0 0

Velocities

1 0 0 0
3 0 0 0
5 0 0 0
2 0 0 0
4 0 0 0
6 0 0 0
