<?xml version="1.0"?>
<VTKFile type="UnstructuredGrid" version="1.0" byte_order="LittleEndian" header_type="UInt64">
  <UnstructuredGrid>
    <Piece NumberOfPoints="16" NumberOfCells="2">
      <PointData>
      </PointData>
      <CellData>
        <DataArray type="Int32" Name="nlocal" format="binary" RangeMin="0" RangeMax="0">
          CAAAAAAAAAAAAAAAAAAAAA==
        </DataArray>
        <DataArray type="Int32" Name="proc" format="binary" RangeMin="0" RangeMax="1">
          CAAAAAAAAAAAAAAAAQAAAA==
        </DataArray>
      </CellData>
      <Points>
        <DataArray type="Float32" Name="Points" NumberOfComponents="3" format="binary" RangeMin="0.37416575022665244" RangeMax="0.989949506907319">
          wAAAAAAAAADNzEy/mpmZvgAAAL/NzEy/mpmZvs3MTD7NzEy/mpmZPgAAAL/NzEy/mpmZPs3MTD4zM7O+mpmZvgAAAL8zM7O+mpmZvs3MTD4zM7O+mpmZPgAAAL8zM7O+mpmZPs3MTD4zM7O+mpmZvgAAAL8zM7O+mpmZvs3MTD4zM7O+mpmZPgAAAL8zM7O+mpmZPs3MTD7NzMw9mpmZvgAAAL/NzMw9mpmZvs3MTD7NzMw9mpmZPgAAAL/NzMw9mpmZPs3MTD4=
          <InformationKey name="L2_NORM_RANGE" location="vtkDataArray" length="2">
            <Value index="0">
              0.37416575023
            </Value>
            <Value index="1">
              0.98994950691
            </Value>
          </InformationKey>
        </DataArray>
      </Points>
      <Cells>
        <DataArray type="Int64" Name="connectivity" format="binary" RangeMin="0" RangeMax="15">
          gAAAAAAAAAAAAAAAAAAAAAEAAAAAAAAAAgAAAAAAAAADAAAAAAAAAAQAAAAAAAAABQAAAAAAAAAGAAAAAAAAAAcAAAAAAAAACAAAAAAAAAAJAAAAAAAAAAoAAAAAAAAACwAAAAAAAAAMAAAAAAAAAA0AAAAAAAAADgAAAAAAAAAPAAAAAAAAAA==
        </DataArray>
        <DataArray type="Int64" Name="offsets" format="binary" RangeMin="8" RangeMax="16">
          EAAAAAAAAAAIAAAAAAAAABAAAAAAAAAA
        </DataArray>
        <DataArray type="UInt8" Name="types" format="binary" RangeMin="11" RangeMax="11">
          AgAAAAAAAAALCw==
        </DataArray>
      </Cells>
    </Piece>
  </UnstructuredGrid>
</VTKFile>
