<?xml version="1.0"?>
<VTKFile type="RectilinearGrid" version="1.0" byte_order="LittleEndian" header_type="UInt64">
  <RectilinearGrid WholeExtent="0 1 0 1 0 1">
  <Piece Extent="0 1 0 1 0 1">
    <PointData>
    </PointData>
    <CellData>
    </CellData>
    <Coordinates>
      <DataArray type="Float64" Name="Array 0x564e37c028c0" format="binary" RangeMin="-1e-10" RangeMax="0.1000000001">
        EAAAAAAAAAC7vdfZ33zbvRmNB5qZmbk/
      </DataArray>
      <DataArray type="Float64" Name="Array 0x564e39259720" format="binary" RangeMin="-1e-10" RangeMax="0.1000000001">
        EAAAAAAAAAC7vdfZ33zbvRmNB5qZmbk/
      </DataArray>
      <DataArray type="Float64" Name="Array 0x564e37f20880" format="binary" RangeMin="-1e-10" RangeMax="0.2000000001">
        EAAAAAAAAAC7vdfZ33zbvVmT0JmZmck/
      </DataArray>
    </Coordinates>
  </Piece>
  </RectilinearGrid>
</VTKFile>
