<?xml version="1.0"?>
<VTKFile type="UnstructuredGrid" version="1.0" byte_order="LittleEndian" header_type="UInt64">
  <UnstructuredGrid>
    <Piece NumberOfPoints="8" NumberOfCells="1">
      <PointData>
      </PointData>
      <CellData>
        <DataArray type="Int32" Name="nlocal" format="binary" RangeMin="0" RangeMax="0">
          BAAAAAAAAAAAAAAA
        </DataArray>
        <DataArray type="Int32" Name="proc" format="binary" RangeMin="0" RangeMax="0">
          BAAAAAAAAAAAAAAA
        </DataArray>
      </CellData>
      <Points>
        <DataArray type="Float32" Name="Points" NumberOfComponents="3" format="binary" RangeMin="1.7320508307e-10" RangeMax="0.24494897793">
          YAAAAAAAAAD/5tuu/+bbrv/m267/5tuu/+bbrs3MTD7/5tuuzczMPf/m267/5tuuzczMPc3MTD7NzMw9/+bbrv/m267NzMw9/+bbrs3MTD7NzMw9zczMPf/m267NzMw9zczMPc3MTD4=
        </DataArray>
      </Points>
      <Cells>
        <DataArray type="Int64" Name="connectivity" format="binary" RangeMin="0" RangeMax="7">
          QAAAAAAAAAAAAAAAAAAAAAEAAAAAAAAAAgAAAAAAAAADAAAAAAAAAAQAAAAAAAAABQAAAAAAAAAGAAAAAAAAAAcAAAAAAAAA
        </DataArray>
        <DataArray type="Int64" Name="offsets" format="binary" RangeMin="8" RangeMax="8">
          CAAAAAAAAAAIAAAAAAAAAA==
        </DataArray>
        <DataArray type="UInt8" Name="types" format="binary" RangeMin="11" RangeMax="11">
          AQAAAAAAAAAL
        </DataArray>
      </Cells>
    </Piece>
  </UnstructuredGrid>
</VTKFile>
